<?xml version="1.0" encoding="utf-8"?>
<!-- Generator: Adobe Illustrator 16.0.0, SVG Export Plug-In . SVG Version: 6.00 Build 0)  -->
<!DOCTYPE svg PUBLIC "-//W3C//DTD SVG 1.1//EN" "http://www.w3.org/Graphics/SVG/1.1/DTD/svg11.dtd">
<svg version="1.1" id="Layer_1" xmlns="http://www.w3.org/2000/svg" xmlns:xlink="http://www.w3.org/1999/xlink" x="0px" y="0px"
	 width="170px" height="216.956px" viewBox="0 0 170 216.956" enable-background="new 0 0 170 216.956" xml:space="preserve">
<g>
	<rect y="88.956" fill="#0E6938" width="170" height="128"/>
	<path fill="none" d="M42.058,68.648c0.698-2.328,1.478-4.408,2.276-6.131C43.535,64.24,42.755,66.318,42.058,68.648z"/>
	<path fill="none" d="M38.794,106.164c-0.024-0.223-0.045-0.445-0.068-0.667C38.749,105.719,38.77,105.94,38.794,106.164z"/>
	<path fill="none" d="M39.963,77.642c0.578-3.24,1.286-6.286,2.094-8.994C41.248,71.356,40.541,74.402,39.963,77.642z"/>
	<path fill="none" d="M67.346,55.647v0.005c0,0,0.041-0.271,0.116-0.741C67.387,55.378,67.346,55.647,67.346,55.647z"/>
	<path fill="none" d="M69.756,43.306c0.473-2.147,1.077-4.4,1.735-6.517C70.833,38.905,70.229,41.158,69.756,43.306z"/>
	<path fill="none" d="M94.15,28.779c0.072,0.424,0.133,0.634,0.214,0.805C94.284,29.413,94.223,29.201,94.15,28.779z"/>
	<path fill="none" d="M100.134,30.24c0.202-0.218,0.649-0.699,1.294-1.375C100.783,29.539,100.336,30.02,100.134,30.24z"/>
	<path fill="none" d="M75.515,27.737c1.652-1.839,3.932-3.298,6.257-4.125C79.446,24.438,77.168,25.898,75.515,27.737z"/>
	<polygon fill="none" points="161.601,207.166 83.124,161.302 20.711,200.008 83.125,161.316 	"/>
	<path fill="none" d="M136.165,107.165c0.041,0.048,0.08,0.095,0.119,0.143C136.245,107.26,136.205,107.213,136.165,107.165z"/>
	<polygon fill="none" points="89.646,153.025 89.531,153.118 89.646,153.025 	"/>
	<path fill="none" d="M133.453,7.14c0.469-0.001,0.92,0.005,1.358,0.018C134.373,7.146,133.924,7.138,133.453,7.14z"/>
	<path fill="none" d="M141.476,59.021c1.307,0.908,2.686,1.558,4.057,2.197C144.166,60.579,142.786,59.925,141.476,59.021z"/>
	<path fill="none" d="M143.255,9.019c0.081,0.056,0.151,0.114,0.224,0.172C143.407,9.133,143.334,9.074,143.255,9.019z"/>
	<path fill="none" d="M149.577,81.372c-5.834,4.684-17.733,14.035-19.459,15.385c1.726-1.349,13.625-10.7,19.468-15.383
		c3.234-2.534,5.858-6.75,5.777-10.102c-0.022-0.93-0.171-1.844-0.553-2.771c0.38,0.927,0.527,1.841,0.547,2.772
		C155.444,74.624,152.82,78.838,149.577,81.372z"/>
	<path fill="none" d="M146.2,17.805L146.2,17.805c-0.023-4.86-0.986-7.053-2.347-8.301C145.214,10.755,146.177,12.946,146.2,17.805z
		"/>
	<path fill="none" d="M135.348,106.277c0.015,0.014,0.027,0.029,0.042,0.043c-0.015-0.015-0.026-0.03-0.042-0.045
		c-1.694-1.668-3.742-2.846-4.475-3.213c-0.123-0.067-0.188-0.098-0.225-0.114c0.034,0.016,0.098,0.048,0.22,0.116
		C131.605,103.435,133.654,104.608,135.348,106.277z"/>
	<path fill="none" d="M129.744,102.359c-0.634-0.563-1.057-1.342-1.166-2.2C128.684,101.018,129.107,101.796,129.744,102.359z"/>
	<path fill="none" d="M127.943,25.039c0.005-0.005,0.011-0.01,0.016-0.015c8.929-10.499,12.513-14.878,13.96-16.706
		c0.489,0.196,0.913,0.417,1.265,0.654c-1.488-1.015-4.188-1.697-8.285-1.812c3.133,0.092,5.442,0.511,7.019,1.158
		C140.471,10.15,136.881,14.53,127.943,25.039z"/>
	<path fill="none" d="M133.322,6.956h-0.009c-3.715,0-9.751,3.034-15.337,7.145c-3.731,2.693-7.318,5.831-10.301,8.589
		c2.983-2.758,6.569-5.918,10.302-8.613C123.561,9.966,129.6,6.956,133.322,6.956z"/>
	<path fill="none" d="M98.527,31.393c-0.828,0.324-1.694,0.303-2.475-0.08C96.833,31.698,97.699,31.719,98.527,31.393z"/>
	<path fill="none" d="M38.443,101.801c0.012,0.222,0.016,0.449,0.031,0.67c0.002,0.034,0.006,0.068,0.009,0.102
		c-0.002-0.034-0.006-0.068-0.008-0.102C38.46,102.25,38.456,102.023,38.443,101.801z"/>
	<path fill="none" d="M100.134,30.24c-0.115,0.139-0.232,0.258-0.348,0.362C99.904,30.502,100.018,30.384,100.134,30.24z"/>
	<path fill="none" d="M93.106,26.856c-0.389-0.476-0.912-1.068-1.609-1.781c-0.833-0.843-1.771-1.413-2.819-1.765
		c1.048,0.354,1.985,0.924,2.817,1.768C92.192,25.79,92.717,26.381,93.106,26.856z"/>
	<path fill="none" d="M47.583,57.665c0.458-0.382,0.676-0.394,0.712-0.394c0.279-0.022,0.559-0.035,0.838-0.051
		c-0.28,0.015-0.56,0.026-0.84,0.047c-0.038,0-0.252,0.015-0.708,0.389c-0.456,0.361-1.082,1.055-1.725,2.042
		c-0.489,0.748-0.985,1.659-1.476,2.706c0.49-1.046,0.986-1.956,1.476-2.702C46.509,58.711,47.124,58.017,47.583,57.665z"/>
	<path fill="none" d="M67.346,55.663c-0.135,0.866-0.596,1.635-1.256,2.192C66.753,57.299,67.217,56.528,67.346,55.663z"/>
	<path fill="#5FA50E" d="M127.959,25.024c0.439-0.427,0.879-0.858,1.314-1.266c0,0-13.871,20.142-26.451,39.976
		c2.344-0.657,7.412-1.914,15.411-3.039c4.342-0.616,6.923,0.377,6.923,0.377s-17.662,5.463-28.358,12.326
		c-4.856,7.944-9.081,15.259-11.554,20.497c-1.225,2.564-2.538,5.497-3.899,8.646c1.897-0.785,11.338-4.474,26.438-6.609
		c6.454-0.91,10.292,0.557,10.292,0.557s-24.678,5.129-40.577,15.424c-0.052,0.037-0.078,0.043-0.134,0.074
		c-3.221,7.874-6.471,16.189-9.262,23.469l15.157,10.6l54.692-35.604c-0.301-1.106-0.875-2.161-1.667-3.143
		c-0.039-0.048-0.078-0.095-0.119-0.143c-0.24-0.288-0.498-0.57-0.776-0.845c-0.014-0.014-0.027-0.029-0.042-0.043
		c-1.694-1.669-3.742-2.842-4.479-3.212c-0.123-0.068-0.186-0.1-0.22-0.116c-0.025-0.011-0.038-0.016-0.038-0.016
		c-0.322-0.147-0.61-0.345-0.867-0.574c-0.636-0.563-1.06-1.341-1.166-2.2c-0.001-0.008-0.004-0.016-0.005-0.024
		c-0.15-1.224,0.354-2.451,1.327-3.208c0.002-0.001,0.082-0.063,0.218-0.169c1.726-1.351,13.625-10.702,19.459-15.385
		c3.243-2.534,5.867-6.748,5.779-10.099c-0.02-0.931-0.167-1.845-0.547-2.772c-0.541-1.312-1.551-2.651-3.364-4.1
		c-1.171-0.935-3.077-1.874-5.081-2.793c-0.276-0.131-0.554-0.261-0.831-0.391c-1.372-0.639-2.75-1.29-4.057-2.197
		c-0.356-0.246-0.709-0.505-1.053-0.794c-1.206-1.004-2.503-2.773-2.499-5.044c0-0.612,0.094-1.206,0.256-1.757
		c3.117-10.854,7.65-20.939,8.014-32.39c0-0.443,0.006-0.845,0.006-1.229c-0.023-4.859-0.986-7.05-2.347-8.301
		c-0.091-0.083-0.183-0.163-0.277-0.237c-0.031-0.026-0.066-0.051-0.098-0.076c-0.072-0.058-0.143-0.116-0.224-0.172
		c-0.022-0.016-0.048-0.031-0.071-0.047c-0.352-0.237-0.775-0.458-1.265-0.654C140.472,10.146,136.888,14.525,127.959,25.024z"/>
	<path fill="#79D600" d="M117.976,14.101c-3.732,2.694-7.319,5.832-10.302,8.589c-1.561,1.444-2.966,2.826-4.119,3.979
		c-0.853,0.855-1.565,1.599-2.128,2.186c-0.645,0.675-1.092,1.162-1.294,1.38c-0.116,0.144-0.23,0.265-0.348,0.365
		c-0.041,0.038-0.083,0.081-0.123,0.112c-0.36,0.299-0.744,0.528-1.137,0.681c-0.828,0.326-1.694,0.305-2.475-0.08
		c-0.33-0.161-0.646-0.378-0.934-0.675l-0.3-0.307c-0.225-0.389-0.355-0.536-0.454-0.747c-0.082-0.17-0.143-0.381-0.214-0.805
		l-0.301-0.918c-0.147-0.234-0.389-0.571-0.743-1.004c-0.389-0.475-0.914-1.066-1.611-1.779c-0.832-0.844-1.769-1.414-2.817-1.768
		c-0.853-0.287-1.779-0.433-2.795-0.442c-1.304-0.017-2.716,0.25-4.111,0.745c-2.325,0.826-4.605,2.286-6.257,4.125
		c-1.155,1.102-2.7,4.794-4.024,9.052c-0.658,2.117-1.262,4.37-1.735,6.517c-1.212,5.158-2.184,9.854-2.467,11.605
		C67.214,55.381,67,55.652,67,55.652v0.01c0,0.866-0.42,1.637-1.083,2.192c-0.096,0.08-0.095,0.169-0.2,0.24
		c-0.839,0.552-1.827,0.718-2.802,0.479c-0.006,0-1.278-0.347-3.46-0.698c-2.194-0.359-5.175-0.717-8.283-0.717
		c-0.68,0-1.359,0.025-2.043,0.062c-0.28,0.016-0.558,0.029-0.836,0.051c-0.036,0-0.252,0.011-0.711,0.394
		c-0.459,0.353-1.074,1.046-1.722,2.037c-0.489,0.746-0.985,1.655-1.475,2.702c-0.017,0.036-0.033,0.077-0.05,0.113
		c-0.799,1.723-1.578,3.803-2.276,6.131c-0.809,2.708-1.516,5.754-2.094,8.994c-1.054,5.907-1.673,12.468-1.664,18.869
		c0,1.788,0.046,3.55,0.144,5.291c0.013,0.222,0.017,0.449,0.032,0.67c0.002,0.034,0.005,0.068,0.008,0.102
		c0.06,0.971,0.145,1.946,0.244,2.923c0.022,0.222,0.043,0.444,0.068,0.667c0.359,3.309,0.912,6.63,1.577,9.884l18.243,12.762
		c2.969-5.468,6.39-11.687,10.22-18.42c-1.944-16.78-8.113-33.462-8.113-33.462s3.373,2.535,6.096,8.639
		c3.537,7.937,5.582,13.236,6.757,16.583c5.852-10.076,12.335-20.799,19.079-31.214c-0.64-12.379-5.756-26.211-5.756-26.211
		s3.288,1.36,5.126,5.469c3.815,8.547,4.635,12.944,4.805,14.409c10.421-15.595,21.239-29.953,31.116-39.563
		c8.938-10.509,12.528-14.889,13.974-16.722c-1.576-0.647-3.886-1.066-7.019-1.158c-0.029-0.001-0.059-0.094-0.088-0.095
		c-0.438-0.012-0.889-0.109-1.358-0.109h-0.006h-0.125C129.6,6.956,123.561,9.99,117.976,14.101z"/>
	<polygon fill="#FFFFFF" points="89.531,153.118 161.949,207.351 162,207.361 162,207.226 89.68,153.025 	"/>
	<polygon fill="#FFFFFF" points="83.125,161.316 20.711,199.803 8.85,206.956 161.932,206.956 161.986,207.096 	"/>
	<polygon fill="#FFFFFF" points="161.932,207.364 161.937,207.364 161.932,207.361 161.915,207.351 	"/>
	<polygon fill="#FFFFFF" points="8.758,206.956 8.779,206.956 75.554,153.702 8.733,95.205 	"/>
	<polygon fill="#006938" points="8.558,207.534 8.843,207.364 8.78,207.364 	"/>
	<polygon fill="#DBDCDD" points="89.538,153.118 162,207.226 162,94.517 161.876,94.629 89.653,153.025 	"/>
	<path fill="#0E6938" d="M131.989,0.154l0.018,0.063c-8.463,0.823-16.921,7-24.097,12.869c-3.913,3.276-7.309,6.534-9.669,8.906
		c-0.479-0.56-1.031-1.171-1.692-1.858c-2.941-3.047-6.899-4.363-10.666-4.347c-5.874,0.036-11.582,2.826-15.597,7.169
		c-3.755,4.338-5.688,11.786-7.411,18.722c-0.834,3.551-1.477,6.873-1.92,9.258c-2.48-0.418-5.964-0.861-9.772-0.861
		c-1.141,0-2.282,0.042-3.459,0.134c-3.916,0.621-5.94,2.847-7.801,5.633c-5.423,8.523-8.634,24.692-8.714,40.667
		c0,2.153,0.075,4.296,0.2,6.417c0.166,2.477,0.453,4.954,0.8,7.417L4.413,91.954l4.318,4.002h0.001l66.821,58.171l0.006-0.311
		l-66.78,53.14h0.063h0.002H8.85l11.861-7.152l62.413-38.602l78.862,45.992l-72.455-54.095l0.115-0.083l72.252-58.391l0.146-0.116
		l-17.997,11.968c-1.197-2.659-3.08-4.739-4.808-6.24c-0.348-0.297-0.696-0.578-1.022-0.838c4.456-3.504,11.625-9.16,15.798-12.509
		c4.37-3.573,8.346-9.045,8.427-15.619c0.052-4.398-2.138-9.028-6.644-12.459c-2.789-2.149-6.02-3.344-8.329-4.508
		c-1.105-0.534-1.976-1.062-2.355-1.389c2.864-10.019,7.694-20.668,8.15-33.665c0.009-0.497,0.024-0.968,0.024-1.446
		c0.026-6.036-1.434-10.977-5.279-14.059l-0.136-0.047c-0.372-0.25-1.136-0.691-2.669-1.469C141.058,0.102,134.523,0,134.523,0
		l-1.088,0.065L131.989,0.154z M133.453,6.956c0.471,0,0.919,0.098,1.358,0.109c0.029,0,0.059,0.048,0.088,0.049
		c4.097,0.115,6.797,0.82,8.285,1.835c0.023,0.016,0.049,0.042,0.071,0.058c0.079,0.056,0.151,0.12,0.224,0.178
		c0.032,0.025,0.067,0.053,0.098,0.079c0.094,0.075,0.186,0.156,0.277,0.239c1.361,1.248,2.324,3.442,2.347,8.301v0
		c0,0.384-0.006,0.787-0.006,1.23c-0.364,11.451-4.897,21.536-8.014,32.39c-0.162,0.552-0.256,1.145-0.256,1.757
		c-0.004,2.271,1.293,4.04,2.499,5.044c0.344,0.29,0.697,0.548,1.053,0.794c1.31,0.905,2.69,1.559,4.057,2.197
		c0.277,0.129,0.555,0.259,0.831,0.391c2.004,0.919,3.91,1.858,5.081,2.793c1.813,1.449,2.823,2.788,3.364,4.1
		c0.382,0.927,0.531,1.841,0.553,2.771c0.082,3.352-2.542,7.567-5.777,10.102c-5.843,4.684-17.742,14.035-19.468,15.383
		c-0.136,0.106-0.216,0.168-0.218,0.169c-0.972,0.758-1.477,1.984-1.327,3.208c0.001,0.008,0.003,0.016,0.005,0.024
		c0.109,0.858,0.532,1.637,1.166,2.2c0.257,0.229,0.545,0.427,0.867,0.574c0,0,0.013,0.005,0.038,0.016
		c0.036,0.016,0.102,0.047,0.225,0.114c0.732,0.367,2.781,1.544,4.475,3.213c0.015,0.015,0.027,0.03,0.042,0.045
		c0.278,0.274,0.536,0.557,0.776,0.845c0.04,0.048,0.08,0.095,0.119,0.143c0.792,0.981,1.366,2.036,1.667,3.143l-54.692,35.604
		l-15.157-10.6c2.792-7.279,6.041-15.595,9.262-23.469c0.056-0.031,0.082-0.037,0.134-0.074
		c15.899-10.295,40.577-15.424,40.577-15.424s-3.838-1.467-10.292-0.557c-15.1,2.136-24.542,5.824-26.438,6.609
		c1.362-3.149,2.674-6.082,3.899-8.646c2.474-5.238,6.698-12.553,11.554-20.497c10.696-6.862,28.358-12.326,28.358-12.326
		s-2.581-0.993-6.923-0.377c-7.999,1.125-13.067,2.382-15.411,3.039c12.581-19.834,26.451-39.976,26.451-39.976
		c-0.435,0.408-0.875,0.839-1.314,1.266c-0.005,0.005-0.01,0.01-0.016,0.015c-9.877,9.61-20.695,23.968-31.116,39.563
		c-0.169-1.465-0.99-5.861-4.805-14.409c-1.839-4.109-5.126-5.469-5.126-5.469s5.117,13.832,5.756,26.211
		c-6.744,10.415-13.227,21.138-19.079,31.214c-1.175-3.347-3.22-8.646-6.757-16.583c-2.724-6.104-6.096-8.639-6.096-8.639
		s6.169,16.682,8.113,33.462c-3.83,6.734-7.251,12.953-10.22,18.42l-18.243-12.762c-0.665-3.254-1.217-6.576-1.577-9.884
		c-0.024-0.223-0.045-0.445-0.068-0.667c-0.099-0.977-0.184-1.952-0.244-2.923c-0.002-0.034-0.007-0.068-0.009-0.102
		c-0.015-0.222-0.019-0.448-0.031-0.67c-0.098-1.741-0.144-3.502-0.144-5.291c-0.009-6.4,0.61-12.961,1.664-18.869
		c0.578-3.24,1.284-6.286,2.094-8.994c0.698-2.33,1.478-4.408,2.276-6.131c0.017-0.037,0.034-0.077,0.051-0.113
		c0.49-1.047,0.987-1.958,1.476-2.706c0.644-0.987,1.27-1.681,1.725-2.042c0.456-0.374,0.671-0.389,0.708-0.389
		c0.28-0.021,0.56-0.032,0.84-0.047c0.685-0.037,1.369-0.062,2.048-0.062c3.108,0,6.101,0.358,8.294,0.717
		c2.182,0.351,3.476,0.698,3.482,0.698c0.975,0.239,2.006,0.074,2.845-0.479c0.104-0.07,0.017-0.16,0.113-0.24
		C66.577,57.298,67,56.529,67,55.663v-0.01v-0.005c0,0,0.214-0.27,0.289-0.736c0.283-1.752,1.169-6.447,2.381-11.605
		c0.472-2.148,1.12-4.401,1.778-6.517c1.324-4.257,2.891-7.95,4.046-9.052c1.653-1.839,3.942-3.299,6.268-4.125
		c1.396-0.495,2.813-0.761,4.117-0.745c1.016,0.009,1.944,0.155,2.797,0.442c1.048,0.353,1.986,0.922,2.82,1.765
		c0.697,0.713,1.221,1.305,1.61,1.781c0.354,0.433,0.596,0.77,0.743,1.004l0.302,0.918c0.073,0.422,0.134,0.634,0.214,0.805
		c0.099,0.211,0.229,0.358,0.454,0.747l0.3,0.307c0.288,0.297,0.604,0.515,0.934,0.676c0.78,0.382,1.647,0.403,2.475,0.08
		c0.393-0.153,0.776-0.381,1.137-0.681c0.039-0.03,0.082-0.072,0.123-0.11c0.115-0.104,0.233-0.223,0.348-0.362
		c0.202-0.221,0.649-0.701,1.294-1.375c0.563-0.587,1.275-1.319,2.128-2.174c1.153-1.152,2.558-2.511,4.119-3.956
		c2.983-2.759,6.57-5.942,10.301-8.635c5.585-4.111,11.622-7.145,15.337-7.145h0.009h0.125H133.453z"/>
	<rect x="158" y="206.956" fill="#0E6938" width="6" height="2"/>
</g>
</svg>
